{
    "KPlugin": {
        "Authors": [
            {
                "Email": "nicolas.fella@gmx.de",
                "Name": "Nicolas Fella",
                "Name[ar]": "Nicolas Fella",
                "Name[ast]": "Nicolas Fella",
                "Name[az]": "Nicolas Fella",
                "Name[bg]": "Nicolas Fella",
                "Name[ca@valencia]": "Nicolas Fella",
                "Name[ca]": "Nicolas Fella",
                "Name[cs]": "Nicolas Fella",
                "Name[da]": "Nicolas Fella",
                "Name[de]": "Nicolas Fella",
                "Name[el]": "Nicolas Fella",
                "Name[en_GB]": "Nicolas Fella",
                "Name[es]": "Nicolas Fella",
                "Name[et]": "Nicolas Fella",
                "Name[eu]": "Nicolas Fella",
                "Name[fi]": "Nicolas Fella",
                "Name[fr]": "Nicolas Fella",
                "Name[gl]": "Nicolas Fella",
                "Name[hu]": "Nicolas Fella",
                "Name[ia]": "Nicolas Fella",
                "Name[id]": "Nicolas Fella",
                "Name[is]": "Nicolas Fella",
                "Name[it]": "Nicolas Fella",
                "Name[ko]": "Nicolas Fella",
                "Name[lt]": "Nicolas Fella",
                "Name[nl]": "Nicolas Fella",
                "Name[nn]": "Nicolas Fella",
                "Name[pl]": "Nicolas Fella",
                "Name[pt]": "Nicolas Fella",
                "Name[pt_BR]": "Nicolas Fella",
                "Name[ro]": "Nicolas Fella",
                "Name[ru]": "Nicolas Fella",
                "Name[sk]": "Nicolas Fella",
                "Name[sl]": "Nicolas Fella",
                "Name[sv]": "Nicolas Fella",
                "Name[tr]": "Nicolas Fella",
                "Name[uk]": "Nicolas Fella",
                "Name[x-test]": "xxNicolas Fellaxx",
                "Name[zh_CN]": "Nicolas Fella",
                "Name[zh_TW]": "Nicolas Fella"
            }
        ],
        "Description": "Use a connected device to take a photo",
        "Description[ar]": "استعمل الجهاز المتصل لأخذ صورة",
        "Description[ast]": "Usa un preséu conectáu pa facer una semeya",
        "Description[az]": "Qoşulmuş cihazla şəkil çəkmək",
        "Description[bg]": "Снимане с камерата на свързаното устройство",
        "Description[ca@valencia]": "Utilitza un dispositiu connectat per a prendre una fotografia",
        "Description[ca]": "Usa un dispositiu connectat per a prendre una fotografia",
        "Description[cs]": "Použít připojené zařízení pro pořízení fotografie",
        "Description[da]": "Brug en tilsluttet enhed til at tage et foto",
        "Description[de]": "Ein Foto auf einem verbundenen Gerät aufnehmen",
        "Description[el]": "Χρήση συνδεδεμένης συσκευής για λήψη φωτογραφίας",
        "Description[en_GB]": "Use a connected device to take a photo",
        "Description[es]": "Usar un dispositivo conectado para tomar una fotografía",
        "Description[et]": "Ühendatud seadme kasutamine foto tegemiseks",
        "Description[eu]": "Erabili konektatutako gailu bat argazki bat ateratzeko",
        "Description[fi]": "Ota yhdistetyllä laitteella valokuva",
        "Description[fr]": "Utiliser un périphérique connecté pour prendre une photo",
        "Description[gl]": "Usar un dispositivo conectado para sacar unha foto",
        "Description[hu]": "A csatlakoztatott eszköz használata fénykép készítésére",
        "Description[ia]": "Usa un dispositivo connectite pro prender un photo",
        "Description[id]": "Gunakan peranti yang terkoneksi untuk mengambil foto",
        "Description[it]": "Usa un dispositivo connesso per scattare una foto",
        "Description[ko]": "연결된 장치로 사진 찍기",
        "Description[lt]": "Naudoti prijungtą įrenginį, siekiant padaryti nuotrauką",
        "Description[nl]": "Gebruik een verbonden apparaat om een foto te nemen",
        "Description[nn]": "Bruk tilkopla eining til å ta eit bilete",
        "Description[pl]": "Wykonuje zdjęcia na innym urządzeniu",
        "Description[pt]": "Usar um dispositivo ligado para tirar uma fotografia",
        "Description[pt_BR]": "Usa um dispositivo conectado para tirar uma foto",
        "Description[ro]": "Folosiți un dispozitiv conectat pentru a face o poză",
        "Description[ru]": "Использование подключённого устройства для фотографирования",
        "Description[sk]": "Použitie pripojeného zariadenia na zachytenie fotografie",
        "Description[sl]": "Uporabi povezano napravo za zajem fotografije",
        "Description[sv]": "Använd en ansluten apparat för att ta ett foto",
        "Description[tr]": "Fotoğraf çekmek için bağlı bir aygıt kullanın",
        "Description[uk]": "Скористатися з'єднаним пристроєм для фотографування",
        "Description[x-test]": "xxUse a connected device to take a photoxx",
        "Description[zh_CN]": "使用连接的设备拍照",
        "Description[zh_TW]": "使用連結裝置拍照",
        "EnabledByDefault": true,
        "Icon": "camera-photo",
        "Id": "kdeconnect_photo",
        "License": "GPL",
        "Name": "Photo",
        "Name[ar]": "صورة",
        "Name[ast]": "Semeya",
        "Name[az]": "Foto",
        "Name[bg]": "Снимка",
        "Name[ca@valencia]": "Fotografia",
        "Name[ca]": "Fotografia",
        "Name[cs]": "Fotka",
        "Name[da]": "Foto",
        "Name[de]": "Foto",
        "Name[el]": "Φωτογραφία",
        "Name[en_GB]": "Photo",
        "Name[es]": "Fotografía",
        "Name[et]": "Foto",
        "Name[eu]": "Argazkia",
        "Name[fi]": "Valokuva",
        "Name[fr]": "Photo",
        "Name[gl]": "Foto",
        "Name[hu]": "Fénykép",
        "Name[ia]": "Photo",
        "Name[id]": "Photo",
        "Name[is]": "Ljósmynd",
        "Name[it]": "Foto",
        "Name[ko]": "사진",
        "Name[lt]": "Nuotrauka",
        "Name[nl]": "Foto",
        "Name[nn]": "Foto",
        "Name[pl]": "Robienie zdjęć",
        "Name[pt]": "Fotografia",
        "Name[pt_BR]": "Foto",
        "Name[ro]": "Poză",
        "Name[ru]": "Фото",
        "Name[sk]": "Fotografia",
        "Name[sl]": "FOtografija",
        "Name[sv]": "Foto",
        "Name[tg]": "Сурат",
        "Name[tr]": "Fotoğraf",
        "Name[uk]": "Фото",
        "Name[x-test]": "xxPhotoxx",
        "Name[zh_CN]": "照片",
        "Name[zh_TW]": "相片",
        "ServiceTypes": [
            "KdeConnect/Plugin"
        ],
        "Version": "0.1",
        "Website": "https://nicolasfella.wordpress.com"
    },
    "X-KdeConnect-OutgoingPacketType": [
        "kdeconnect.photo.request"
    ],
    "X-KdeConnect-SupportedPacketType": [
        "kdeconnect.photo"
    ]
}
